<?xml version="1.0" encoding="utf-8"?>
<!-- Generator: Adobe Illustrator 16.0.4, SVG Export Plug-In . SVG Version: 6.00 Build 0)  -->
<!DOCTYPE svg PUBLIC "-//W3C//DTD SVG 1.1//EN" "http://www.w3.org/Graphics/SVG/1.1/DTD/svg11.dtd">
<svg version="1.1" id="Layer_1" xmlns="http://www.w3.org/2000/svg" xmlns:xlink="http://www.w3.org/1999/xlink" x="0px" y="0px"
	 width="612px" height="612px" viewBox="0 0 612 612" enable-background="new 0 0 612 612" xml:space="preserve">
<g>
	<path fill="#FFE513" d="M244.268,223.064h-20.962c-7.911-0.246-9.081,1.939-3.509,6.557c9.973,8.742,14.867,17.237,14.683,25.486
		c-0.185,8.25-5.079,13.175-14.683,14.775h-58.177v-19.854h36.753c8.711,0.247,9.819-2.185,3.325-7.295
		c-10.712-9.85-15.268-18.899-13.667-27.149c1.6-8.249,6.649-12.375,15.145-12.375h41.093V223.064z"/>
	<path fill="#FFE513" d="M293.441,203.21v19.854h-21.147v46.819h-21.701v-46.819h-21.147V203.21H293.441z"/>
	<path fill="#FFE513" d="M281.528,223.064V203.21h55.961l22.301,66.673h-25.21l-4.201-12.005H310.57l-4.201,12.005h-23.917
		l15.375-46.819H281.528z M321.006,217.985l-9.559,26.41h18.377L321.006,217.985z"/>
	<path fill="#FFE513" d="M358.867,269.883V203.21h43.402c5.355,0.493,9.757,1.909,13.205,4.248c3.447,2.339,5.971,5.479,7.572,9.419
		c1.23,5.91,1.293,10.466,0.184,13.667c-1.107,3.202-3.047,5.88-5.816,8.034c-2.771,2.155-6.742,3.848-11.913,5.079l4.987,6.371
		h35.645v19.854h-42.018l-21.146-22.024v22.024H358.867z M382.969,219.832v12.282h16.807c0.893,0,1.862-0.331,2.909-0.993
		c1.046-0.661,1.601-2.332,1.662-5.01c-0.154-2.554-0.778-4.24-1.87-5.056c-1.093-0.815-2.008-1.224-2.747-1.224H382.969z"/>
	<path fill="#FFE513" d="M177.78,355.098l-7.018,28.258h-21.701l-15.329-46.818H119.88v-19.854h30.566l9.142,28.812l7.942-28.812
		h19.946l9.281,28.812l6.187-28.812h21.47l-16.483,66.673h-21.701L177.78,355.098z"/>
	<path fill="#FFE513" d="M291.456,350.389c0,7.295-1.523,13.513-4.571,18.653s-7.457,9.004-13.229,11.589
		c-5.771,2.586-12.659,3.879-20.662,3.879c-8.003,0-14.875-1.3-20.616-3.901c-5.741-2.601-10.089-6.448-13.044-11.543
		c-2.955-5.095-4.432-11.319-4.432-18.677c0-5.571,0.846-10.474,2.539-14.706s4.171-7.795,7.434-10.688
		c3.262-2.894,7.264-5.087,12.005-6.58c4.74-1.492,10.111-2.239,16.114-2.239c7.972,0,14.852,1.316,20.639,3.948
		c5.787,2.632,10.204,6.51,13.251,11.635S291.456,343.094,291.456,350.389z M238.588,350.573c0,4.278,0.962,8.004,2.886,11.174
		c1.923,3.171,5.718,4.756,11.382,4.756c4.37,0,7.641-0.831,9.812-2.493c2.17-1.663,3.524-3.562,4.063-5.703
		c0.538-2.139,0.9-4.717,1.085-7.733c-0.185-4.278-1.216-8.011-3.093-11.197c-1.878-3.186-5.833-4.778-11.866-4.778
		C243.344,334.598,238.588,339.923,238.588,350.573z"/>
	<path fill="#FFE513" d="M294.642,383.355v-66.673h43.402c5.356,0.493,9.757,1.909,13.205,4.248c3.447,2.34,5.972,5.479,7.572,9.419
		c1.231,5.91,1.293,10.466,0.185,13.667c-1.107,3.202-3.047,5.88-5.817,8.034c-2.771,2.155-6.741,3.848-11.913,5.079l4.987,6.371
		h35.645v19.854h-42.017l-21.146-22.024v22.024H294.642z M318.744,333.305v12.282h16.807c0.893,0,1.861-0.331,2.908-0.993
		c1.047-0.661,1.601-2.332,1.662-5.01c-0.154-2.555-0.777-4.239-1.869-5.056c-1.094-0.815-2.009-1.224-2.748-1.224H318.744z"/>
	<path fill="#FFE513" d="M387.91,316.683v21.701l15.236-21.701h21.701l-24.841,33.337l11.081,13.481h35.646v19.854h-42.017
		l-16.807-19.854v19.854h-21.701v-66.673H387.91z"/>
	<path fill="#FFE513" d="M488.195,336.537h-20.962c-7.911-0.246-9.081,1.938-3.509,6.557c9.973,8.742,14.867,17.237,14.683,25.486
		c-0.185,8.25-5.079,13.175-14.683,14.775h-58.178v-19.854h36.754c8.711,0.247,9.818-2.185,3.324-7.295
		c-10.712-9.85-15.268-18.899-13.667-27.149c1.601-8.249,6.649-12.374,15.145-12.374h41.093V336.537z"/>
</g>
</svg>
